pane	0	1	:zsh	1	:*	0	:/home/bnd/Workspace	1	zsh	:-zsh
pane	Extension	1	:zsh	1	:*	0	:/home/bnd/Workspace/Mozilla/extensions/todo	1	zsh	:-zsh
pane	Extension	2	:node	0	:	0	:/home/bnd/Workspace/Mozilla/extensions/editor	1	zsh	:-zsh
pane	Extension	3	:zsh	0	:-	0	:/home/bnd/Workspace/Mozilla/extensions/beastify	1	zsh	:-zsh
pane	vr	1	:nvim	0	:-	0	:/home/bnd/Workspace/Mozilla/webvr/mozilla	1	nvim	:-zsh
nvim index.html
nvim index.html
pane	vr	2	:zsh	0	:	0	:/home/bnd/Workspace/Mozilla/webvr/mozilla	1	zsh	:-zsh
pane	vr	3	:zsh	1	:*	0	:/home/bnd/Workspace/Mozilla/webvr/gamevr1	1	zsh	:-zsh
window	0	1	1	:*	c21e,97x27,0,0,1
window	Extension	1	1	:*	c21f,97x27,0,0,2
window	Extension	2	0	:	ae60,80x23,0,0,3
window	Extension	3	0	:-	ae61,80x23,0,0,4
window	vr	1	0	:-	c222,97x27,0,0,5
window	vr	2	0	:	c223,97x27,0,0,6
window	vr	3	1	:*	c224,97x27,0,0,7
state	vr	0
