pane	0	1	:zsh	1	:*	0	:/home/bnd/Workspace	1	zsh	:-zsh
pane	1	1	:zsh	1	:*	0	:/home/bnd/Workspace/Mozilla/extensions/todo	1	nvim	:-zsh
nvim todo.html
pane	1	2	:node	0	:-	0	:/home/bnd/Workspace/Mozilla/extensions/editor	1	nvim	:-zsh
nvim
pane	1	3	:nvim	0	:	0	:/home/bnd/Workspace/Mozilla/extensions/beastify	1	nvim	:-zsh
nvim
window	0	1	1	:*	ae5e,80x23,0,0,1
window	1	1	1	:*	c21f,97x27,0,0,2
window	1	2	0	:-	c220,97x27,0,0,3
window	1	3	0	:	c221,97x27,0,0,4
state	1	0
