{
"solargraph.diagnostics": true,
 "solargraph.hover": true,
"eslint.enable":false,
"emmet.includeLanguages": {"eruby": "html"},
"coc.preferences.colorSupport": true,
  "languageserver": {
    "metals": {
      "command": "metals-vim",
      "rootPatterns": ["build.sbt"],
      "filetypes": ["scala", "sbt"]
    },
    "lua": {
      "command": "lua-lsp",
      "filetypes": ["lua"]
    }
  },
}
